"target","marker","neither"
1.0054,1.005,1.4877
1.7014,1.6345,1.4055
3.4261,2.8596,3.2403
3.4139,2.682,2.1562
1.9499,1.8817,1.9804
2.7874,3.1335,2.3026
2.3488,1.572,1.9956
2.0642,1.3017,2.1268
1.7285,1.8523,2.4022
1.8073,1.4456,1.5275
0.71741,1.0054,0.99197
3.2403,2.6031,2.5829
3.2403,3.3106,3.0453
0.52855,0.6849,1.0054
2.4748,2.185,1.7022
1.106,0.92943,0.79427
